{
    "EntryId": "EntryId_3a096cd1-753e-40c5-b812-4e34a112591b",
    "Author": "Vasya updated",
    "Title": "first entry updated",
    "Text": "updated",
    "DateCreated": 1466968418800,
    "DateModified": 1466969285394
}